Example analysis: COVID-19 stay-at-home orders and all-cause mortality
…
Introduction

This vignette implements an example analysis using difference-in-differences g-formula estimators and data included in the package. The scientific question is, “what effect would a U.S. federal stay-at-home order have had on all-cause mortality in the early months of the COVID-19 pandemic?” Mathematically, this question can be expressed as \[
\mathbb{E}[Y_t(\bar a)] - \mathbb{E}[Y_t]
\] where \(Y_t\) is an indicator (0/1) of mortality in week \(t\) in the observable data, and \(Y_t(\bar a)\) is that variable under intervention \(\bar A=\bar a\), where \(\bar a\) refers to the intervention "set all states to be under stay-at-home order during weeks 0 through \(t\).

Data

The data are included in the package as:

data("stayathome2020")
stayathome2020
#> # A tibble: 516 x 6
#>    state    week case_gr stayathome  mort     pop
#>    <chr>   <dbl>   <dbl>      <dbl> <dbl>   <dbl>
#>  1 Alabama     0    30.9          1  1135 4876250
#>  2 Alabama     1    29.6          1  1149 4876250
#>  3 Alabama     2    31.5          1  1139 4876250
#>  4 Alabama     3    27.6          1  1147 4876250
#>  5 Alabama     4    41.0          0  1171 4876250
#>  6 Alabama     5    42.2          0  1148 4876250
#>  7 Alabama     6    50.4          0  1153 4876250
#>  8 Alabama     7    67.8          0  1109 4876250
#>  9 Alabama     8    54.3          0  1173 4876250
#> 10 Alabama     9    92.2          0  1138 4876250
#> # ... with 506 more rows
…
